
{
  "data":
    {
      "title": "hubzilla",
      "category": "social network",
      "type": "macroblogging",
      "logoClr": "43488a",
      "created": "2015",
      "official": "https://project.hubzilla.org",
      "license": "MIT",
      "repo": "https://framagit.org/hubzilla/core",
      "language": "PHP",
      "protocols":
        [
          {"title": "Zot", "url": "https://project.hubzilla.org/help/developer/zot_protocol"},
          {"title": "OStatus", "url": "https://github.com/OStatus"},
          {"title": "diaspora", "url": "https://github.com/diaspora/diaspora_federation"},
          {"title": "ActivityPub", "url": "https://activitypub.rocks"}
        ],
      "wiki": "https://project.hubzilla.org/wiki/hubzilla/Hubzilla%2BProject/Home",
      "servers":
        [
          {"num": "1", "url": "https://the-federation.info/hubzilla"},
          {"num": "2", "url": "https://fediverse.network/hubzilla"}
        ],
      "serverWizard": "https://podupti.me",
      "mobile": "",
      "tutorials":
        [
          {"id": "0", "url": "https://project.hubzilla.org/help/member/member_guide"},
          {"id": "1", "url": "https://project.hubzilla.org/help/admin/administrator_guide"},
          {"id": "2", "url": "https://project.hubzilla.org/help/tutorials/personal_channel"}

        ],
      "devTutorials": "https://github.com/redmatrix/hubzilla/wiki/Deploying-Hubzilla#install-and-set-up-the-basics",
      "cheatsheets":
        [
          {"id": "0", "url": "/img/hubzilla-permissions.png"}
        ],
      "mascot": [{"item": "red koala", "imgNum": "1"}],
      "dwellers": "hubzillians",
      "communities": [{"title": "List of forums", "url": "https://hub.libranet.de/directory?f=&global=1&pubforums=1"}],
      "descr": "The multi-purpose Hubzilla network is home to nomads and power users. It includes a significant number of features and granular settings. Take your time to explore all of them. If you have questions, don't hesitate to post to developer forums or ask the community. Hubzilla is well connected to the rest of Fediverse and will let you follow users from most other federated networks.",
      "connections": ["diaspora*", "Friendica", "GNU Social", "Mastodon", "Pleroma", "Socialhome", "GangGo", "postActiv"],
      "features":
        [
          "forums",
          "file sharing",
          "nomadic indentity",
          "direct messages deletion",
          "expiring posts and mail",
          "events",
          "encrypting comments with passphrase"
        ],
      "information":
        [
          "By default Hubzilla account federates only within Hubzilla network. You need to turn on ActivityPub and diaspora plugins in profile settings in order to connect with your friends from other networks",
          "When you recall a Hubzilla direct message in \"mail\", your message is removed from conversation on both sides (is deleted from the database of the server you're using and from your correspondent's server). This works only between Hubzilla contacts. If you exchange direct messages with friends from diaspora, Friendica, etc, recalling a message will not delete if from their conversations and servers - because those networks do not allow direct message deletion",
          "Sharing files is possible only between Hubzilla users, friends from other networks will not have access to shared files"
        ],
      "donate": "https://salt.bountysource.com/teams/hubzilla",
      "tracker": "https://github.com/redmatrix/hubzilla/issues",
      "bounty": "https://salt.bountysource.com/teams/hubzilla",
      "translating": "https://www.transifex.com/Friendica/hubzilla",
      "reading":
        [
          {
            "title": "Hubzilla HowTo",
            "url": "https://howto.disroot.org/en/dishub"
          },
          {
            "title": "Hubzilla, the Post-Facebook social network",
            "url": "https://medium.com/syntomic/the-post-facebook-social-network-d938748be527"
          },
          {
            "title": "Nomadic identity in Hubzilla",
            "url": "https://medium.com/@tamanning/nomadic-identity-brought-to-you-by-hubzilla-67eadce13c3b"
          },
          {
            "title": "Getting started with nomadic identity — how to create a personal channel on Hubzilla",
            "url": "https://medium.com/@tamanning/getting-started-with-nomadic-identity-how-to-create-a-personal-channel-on-hubzilla-7d9666a428b"
          },
          {
            "title": "The Do-Everything System: An in-depth review of Hubzilla 3.0",
            "url": "https://medium.com/we-distribute/the-do-everything-system-an-in-depth-review-of-hubzilla-3-0-692204177d4e"
          },
          {
            "title": "Got Zot — Mike Macgirvin on building your own apps and protocols",
            "url": "https://medium.com/we-distribute/got-zot-mike-macgirvin-45287601ff19"
          }
        ],
      "notable": ""
    }
}
